com\endava\springsecurity\configuration\SecurityConfiguration.class
com\endava\springsecurity\controller\HelloWorldController.class
com\endava\springsecurity\configuration\SecurityWebApplicationInitializer.class
com\endava\springsecurity\configuration\SpringMvcInitializer.class
endava\com\springsecurity\configuration\HelloWorldConfiguration.class
